^C:\USERS\MATSUDA\SOURCE\REPOS\HC_LAPLACIAN\SRC\HC_LAPLACIAN.CPP|C:\USERS\MATSUDA\SOURCE\REPOS\HC_LAPLACIAN\SRC\VERTEX.CPP
C:\USERS\MATSUDA\SOURCE\REPOS\HC_LAPLACIAN\HC_LAPLACIAN\HC_LAPLACIAN\X64\DEBUG\VC141.PDB
C:\USERS\MATSUDA\SOURCE\REPOS\HC_LAPLACIAN\HC_LAPLACIAN\HC_LAPLACIAN\X64\DEBUG\VC141.IDB
C:\USERS\MATSUDA\SOURCE\REPOS\HC_LAPLACIAN\HC_LAPLACIAN\HC_LAPLACIAN\X64\DEBUG\VERTEX.OBJ
C:\USERS\MATSUDA\SOURCE\REPOS\HC_LAPLACIAN\HC_LAPLACIAN\HC_LAPLACIAN\X64\DEBUG\HC_LAPLACIAN.OBJ
^C:\USERS\MATSUDA\SOURCE\REPOS\HC_LAPLACIAN\SRC\HC_LAPLACIAN.CPP
C:\USERS\MATSUDA\SOURCE\REPOS\HC_LAPLACIAN\HC_LAPLACIAN\HC_LAPLACIAN\X64\DEBUG\VC141.PDB
^C:\USERS\MATSUDA\SOURCE\REPOS\HC_LAPLACIAN\SRC\VERTEX.CPP
C:\USERS\MATSUDA\SOURCE\REPOS\HC_LAPLACIAN\HC_LAPLACIAN\HC_LAPLACIAN\X64\DEBUG\VC141.PDB
